<svg width="278" height="46" viewBox="0 0 278 46" fill="none" xmlns="http://www.w3.org/2000/svg">
<g filter="url(#filter0_d)">
<path d="M262 0H8C3.58172 0 0 3.58172 0 8V30C0 34.4183 3.58173 38 8 38H262C266.418 38 270 34.4183 270 30V8C270 3.58172 266.418 0 262 0Z" fill="#F2C305"/>
<path d="M8 1.5H262C265.59 1.5 268.5 4.41015 268.5 8V30C268.5 33.5899 265.59 36.5 262 36.5H8C4.41015 36.5 1.5 33.5898 1.5 30V8C1.5 4.41015 4.41015 1.5 8 1.5Z" stroke="#B23327" stroke-width="3"/>
</g>
<path d="M27 23.5V22H25.5V20.5H24V19H22.5V17.5H24V16H25.5V14.5H27V13H30V14.5H28.5V16H27V17.5H25.5V19H27V20.5H28.5V22H30V23.5H27ZM34.5 19V17.5H43.5V19H34.5ZM57 23.5V13H66V14.5H67.5V17.5H66V19H67.5V22H66V23.5H57ZM60 17.5H64.5V14.5H60V17.5ZM60 22H64.5V19H60V22ZM70.5 23.5V22H69V20.5H70.5V19H76.5V17.5H70.5V16H78V17.5H79.5V23.5H70.5ZM72 22H76.5V20.5H72V22ZM82.5 23.5V22H81V17.5H82.5V16H91.5V17.5H84V22H91.5V23.5H82.5ZM93 23.5V13H96V19H99V17.5H100.5V16H103.5V17.5H102V19H100.5V20.5H102V22H103.5V23.5H100.5V22H99V20.5H96V23.5H93ZM121.5 23.5V17.5H118.5V16H121.5V13H124.5V16H127.5V17.5H124.5V23.5H121.5ZM130.5 23.5V22H129V17.5H130.5V16H138V17.5H139.5V22H138V23.5H130.5ZM132 22H136.5V17.5H132V22ZM153 25V16H162V17.5H163.5V20.5H162V22H156V25H153ZM156 20.5H160.5V17.5H156V20.5ZM166.5 23.5V22H165V17.5H166.5V16H174V17.5H175.5V22H174V23.5H166.5ZM168 22H172.5V17.5H168V22ZM177 23.5V13H180V19H183V17.5H184.5V16H187.5V17.5H186V19H184.5V20.5H186V22H187.5V23.5H184.5V22H183V20.5H180V23.5H177ZM190.5 23.5V22H189V17.5H190.5V16H198V17.5H199.5V20.5H192V22H198V23.5H190.5ZM192 19H196.5V17.5H192V19ZM202.5 23.5V22H201V17.5H202.5V16H208.5V13H211.5V23.5H202.5ZM204 22H208.5V17.5H204V22ZM214.5 23.5V22H213V17.5H214.5V16H222V17.5H223.5V20.5H216V22H222V23.5H214.5ZM216 19H220.5V17.5H216V19ZM225 23.5V22H226.5V20.5H228V19H226.5V17.5H225V16H228V17.5H229.5V19H231V17.5H232.5V16H235.5V17.5H234V19H232.5V20.5H234V22H235.5V23.5H232.5V22H231V20.5H229.5V22H228V23.5H225Z" fill="black"/>
<defs>
<filter id="filter0_d" x="0" y="0" width="278" height="46" filterUnits="userSpaceOnUse" color-interpolation-filters="sRGB">
<feFlood flood-opacity="0" result="BackgroundImageFix"/>
<feColorMatrix in="SourceAlpha" type="matrix" values="0 0 0 0 0 0 0 0 0 0 0 0 0 0 0 0 0 0 127 0"/>
<feOffset dx="4" dy="4"/>
<feGaussianBlur stdDeviation="2"/>
<feColorMatrix type="matrix" values="0 0 0 0 0.129167 0 0 0 0 0.129167 0 0 0 0 0.129167 0 0 0 0.1 0"/>
<feBlend mode="normal" in2="BackgroundImageFix" result="effect1_dropShadow"/>
<feBlend mode="normal" in="SourceGraphic" in2="effect1_dropShadow" result="shape"/>
</filter>
</defs>
</svg>
