<svg width="132" height="132" viewBox="0 0 132 132" fill="none" xmlns="http://www.w3.org/2000/svg">
<g filter="url(#filter0_d)">
<path d="M61.9988 108.86C88.0188 108.86 109.112 87.8802 109.112 62.0001C109.112 36.12 88.0188 15.14 61.9988 15.14C35.9788 15.14 14.8855 36.12 14.8855 62.0001C14.8855 87.8802 35.9788 108.86 61.9988 108.86Z" fill="#1D1E1D"/>
<path d="M112 56.7931C109.381 31.6258 87.9964 12 61.9988 12C36.0012 12 14.6187 31.6258 12 56.7931H112Z" fill="#C5312A"/>
<path d="M12 67.2069C14.6187 92.3742 36.0036 112 61.9988 112C87.994 112 109.381 92.3742 111.998 67.2069H12Z" fill="#E7E7E9"/>
<path d="M61.9987 77.7548C70.7468 77.7548 77.8385 70.7012 77.8385 62.0001C77.8385 53.2991 70.7468 46.2455 61.9987 46.2455C53.2506 46.2455 46.1589 53.2991 46.1589 62.0001C46.1589 70.7012 53.2506 77.7548 61.9987 77.7548Z" fill="#1D1E1D"/>
<path d="M73.5029 66.5523C76.0297 60.2356 72.9297 53.0776 66.5788 50.5643C60.228 48.0511 53.0313 51.1344 50.5045 57.4511C47.9777 63.7678 51.0777 70.9259 57.4285 73.4391C63.7793 75.9523 70.9761 72.869 73.5029 66.5523Z" fill="#F7F7F7"/>
<path d="M61.9994 70.3041C66.6103 70.3041 70.3482 66.5864 70.3482 62.0003C70.3482 57.4142 66.6103 53.6964 61.9994 53.6964C57.3885 53.6964 53.6507 57.4142 53.6507 62.0003C53.6507 66.5864 57.3885 70.3041 61.9994 70.3041Z" fill="#B8B5B5"/>
<path d="M61.9994 69.6926C66.2706 69.6926 69.7331 66.2487 69.7331 62.0005C69.7331 57.7522 66.2706 54.3084 61.9994 54.3084C57.7282 54.3084 54.2657 57.7522 54.2657 62.0005C54.2657 66.2487 57.7282 69.6926 61.9994 69.6926Z" fill="#F7F7F7"/>
</g>
<defs>
<filter id="filter0_d" x="0" y="0" width="132" height="132" filterUnits="userSpaceOnUse" color-interpolation-filters="sRGB">
<feFlood flood-opacity="0" result="BackgroundImageFix"/>
<feColorMatrix in="SourceAlpha" type="matrix" values="0 0 0 0 0 0 0 0 0 0 0 0 0 0 0 0 0 0 127 0"/>
<feOffset dx="4" dy="4"/>
<feGaussianBlur stdDeviation="8"/>
<feColorMatrix type="matrix" values="0 0 0 0 0.00392157 0 0 0 0 0.109804 0 0 0 0 0.25098 0 0 0 0.2 0"/>
<feBlend mode="normal" in2="BackgroundImageFix" result="effect1_dropShadow"/>
<feBlend mode="normal" in="SourceGraphic" in2="effect1_dropShadow" result="shape"/>
</filter>
</defs>
</svg>
